{
  "hash": "db5bb2a5",
  "browserHash": "5d385690",
  "optimized": {
    "vue": {
      "src": "../../../../node_modules/vue/dist/vue.runtime.esm-bundler.js",
      "file": "vue.js",
      "fileHash": "36b15f01",
      "needsInterop": false
    },
    "@theme/index": {
      "src": "../../../../node_modules/vitepress/dist/client/theme-default/index.js",
      "file": "@theme_index.js",
      "fileHash": "64cd265c",
      "needsInterop": false
    }
  },
  "chunks": {}
}